<?xml version="1.0" encoding="UTF-8"?>
<svg width="71px" height="228px" viewBox="0 0 71 228" version="1.1" xmlns="http://www.w3.org/2000/svg" xmlns:xlink="http://www.w3.org/1999/xlink">
    <!-- Generator: Sketch 44.1 (41455) - http://www.bohemiancoding.com/sketch -->
    <title>Page 1</title>
    <desc>Created with Sketch.</desc>
    <defs>
        <path d="M58.7751229,121.611704 C58.5710421,117.111404 57.7599202,105.554282 57.7599202,105.554282 C57.0460962,96.6561624 55.321659,93.2810138 55.321659,93.2810138 C54.1999793,89.8033834 54.4230302,81.5189277 54.4230302,81.5189277 C55.8509841,70.3708118 53.8493397,60.7568544 53.8493397,60.7568544 C51.503481,52.2677419 42.3629848,52.1655669 42.3629848,52.1655669 L34.5225479,48.1767549 C34.5225479,48.1767549 34.0635954,48.2534629 34.0635954,45.5686856 C34.0635954,42.8839082 34.5225479,42.8581344 34.5225479,42.8581344 C37.5822306,40.3013059 38.3082933,36.6208597 38.3082933,36.6208597 C40.2459903,35.7003646 39.8705673,32.3267502 39.8705673,32.3267502 C40.1034091,30.458452 39.7873439,30.1071297 39.3758166,30.2749667 C39.0931019,30.1095844 38.6460822,30.5385351 38.3287932,30.9168586 C39.0719901,25.13707 37.2074194,22.7223045 37.2074194,22.7223045 C36.2852311,21.2031808 35.1552902,20.2633553 34.0479911,19.6840571 C34.9047022,19.0829738 35.4211767,18.3100648 35.4211767,17.4659708 C35.4211767,15.5516479 32.7702676,14 29.5000787,14 C29.2956919,14.003682 29.2455131,14 29.1941104,14 C25.9239215,14 23.2730124,15.5516479 23.2730124,17.4659708 C23.2730124,18.3109853 23.7910167,19.0851216 24.6498696,19.6865118 C23.5441003,20.26581 22.4159953,21.2050218 21.4950308,22.7223045 C21.4950308,22.7223045 19.6381093,25.1358426 20.3803884,30.9128697 C20.065241,30.5351599 19.6234229,30.1092775 19.3443798,30.2755803 C18.9353002,30.1059024 18.6213768,30.4556905 18.8548306,32.3267502 C18.8548306,32.3267502 18.5745636,35.7003646 20.5122607,36.6208597 C20.5122607,36.6208597 20.6392375,37.165486 20.9678474,37.9795105 C21.2756515,38.7416804 21.7609172,39.7401107 22.4869799,40.753269 L24.4255949,42.8581344 C24.4255949,42.8581344 24.5715417,43.0406992 24.8414058,43.3042677 C24.9423753,43.7731065 25.0757775,44.5745509 25.0757775,45.5303316 C25.0757775,47.0644901 24.7315632,48.1767549 24.7315632,48.1767549 L16.7635374,52.1655669 C16.7635374,52.1655669 7.52696724,52.2677419 5.18141447,60.7568544 C5.18141447,60.7568544 3.16385968,70.3708118 4.59150764,81.5189277 C4.59150764,81.5189277 4.8069093,89.8033834 3.68492365,93.2810138 C3.68492365,93.2810138 1.95650888,96.6561624 1.24268491,105.554282 C1.24268491,105.554282 0.429727207,117.111404 0.22564637,121.611704 C0.22564637,121.611704 -0.282872897,128.975665 0.226870243,133.271309 C0.226870243,133.271309 1.34946783,136.748632 6.44904102,141.760421 L8.18357515,139.816949 L6.24587808,136.748632 L7.1637829,128.484121 L5.022005,122.020711 C5.022005,122.020711 10.8354022,105.861113 11.2432579,100.133486 C11.2432579,100.133486 13.9969723,82.5419045 13.3850358,79.0642741 L13.7537275,79.6021501 C13.9122191,79.8690937 14.0878449,80.1243776 14.2784631,80.3676952 L15.6287011,82.3372478 L17.3626233,93.9968521 C17.3626233,93.9968521 16.8525742,99.3151659 13.9969723,104.020123 C13.9969723,104.020123 8.69362426,110.605652 9.10147996,128.484121 C9.10147996,128.484121 11.8252095,151.272204 14.8998847,166.000125 C14.8998847,166.000125 15.8327819,172.034277 15.6287011,174.591412 C15.6287011,174.591412 13.7928915,183.898538 16.2406376,193.001314 L20.7282743,215.809034 C20.7282743,215.809034 22.0540348,220.206853 21.2383234,222.559331 L20.6144541,223.863366 L20.2423967,224.150867 L18.3824155,227.353577 L18.7905772,230 L27.3576888,230 L26.9495272,227.430285 L27.867432,223.613912 C27.9203645,222.942871 28.0194982,219.485185 26.9495272,216.445096 C26.9495272,216.445096 26.2357032,208.405185 26.6435589,204.723205 L27.2554954,187.867406 C27.2554954,187.867406 27.3576888,176.575693 26.2357032,174.121039 L27.4595763,163.566029 C27.4595763,163.566029 28.9961489,144.792839 29.4994667,136.077285 C30.0024786,144.792839 31.5390512,163.551301 31.5390512,163.551301 L32.7629243,174.084833 C31.6412446,176.539487 31.7431321,187.791005 31.7431321,187.791005 L32.3550686,204.568869 C32.7629243,208.250849 32.0491003,216.442028 32.0491003,216.442028 C30.9760696,219.490708 31.078875,222.942871 31.1204866,223.863366 L31.8612358,226.931683 L32.0491003,227.737116 L31.6412446,230 L40.2083562,230 L40.6162119,227.200161 L37.7606101,222.450713 C36.9445927,220.098234 38.2703532,215.908141 38.2703532,215.908141 L42.7579899,193.050714 C45.205736,183.947938 43.3699264,174.615959 43.3699264,174.615959 C43.1658456,172.05913 44.0987428,166.012398 44.0987428,166.012398 C47.1737239,151.284477 49.8971475,128.490564 49.8971475,128.490564 C50.3053092,110.611788 45.0016552,104.023191 45.0016552,104.023191 C42.1460533,99.3182342 41.6360042,93.9983863 41.6360042,93.9983863 L43.3699264,82.3381683 C44.2933386,81.6370579 44.9982895,80.9034233 45.5312863,80.050738 C45.3926826,85.0379804 47.7553696,100.133486 47.7553696,100.133486 C48.1635313,105.861113 53.9769285,122.020711 53.9769285,122.020711 L51.8351506,128.484121 L52.7530554,136.748632 L50.8153583,139.816949 L52.5501984,141.760421 C57.6497716,136.748632 58.7726752,133.271309 58.7726752,133.271309 C59.2827243,128.975665 58.7751229,121.611704 58.7751229,121.611704 Z" id="path-1"></path>
        <filter x="-15.3%" y="-4.2%" width="130.5%" height="108.3%" filterUnits="objectBoundingBox" id="filter-2">
            <feOffset dx="0" dy="0" in="SourceAlpha" result="shadowOffsetOuter1"></feOffset>
            <feGaussianBlur stdDeviation="3" in="shadowOffsetOuter1" result="shadowBlurOuter1"></feGaussianBlur>
            <feColorMatrix values="0 0 0 0 0.431372549   0 0 0 0 0.780392157   0 0 0 0 0.596078431  0 0 0 0.72 0" type="matrix" in="shadowBlurOuter1"></feColorMatrix>
        </filter>
    </defs>
    <g id="Page-1" stroke="none" stroke-width="1" fill="none" fill-rule="evenodd">
        <g id="design-ใหม่" transform="translate(-431.000000, -201.000000)">
            <g id="detail-copy" transform="translate(337.000000, 86.000000)">
                <g id="bmi-box" transform="translate(37.000000, 30.000000)">
                    <g id="Group-3" transform="translate(63.000000, 77.000000)">
                        <g id="Page-1">
                            <use fill="black" fill-opacity="1" filter="url(#filter-2)" xlink:href="#path-1"></use>
                            <use fill="#6EC798" fill-rule="evenodd" xlink:href="#path-1"></use>
                        </g>
                    </g>
                </g>
            </g>
        </g>
    </g>
</svg>